{
  "project_info": {
    "project_number": "131676294123",
    "firebase_url": "https://tatiana-app.firebaseio.com",
    "project_id": "tatiana-app",
    "storage_bucket": "tatiana-app.appspot.com"
  },
  "client": [
    {
      "client_info": {
        "mobilesdk_app_id": "1:131676294123:android:d4a7b91897e703a69f27ae",
        "android_client_info": {
          "package_name": "ru.podivilov.tatiana"
        }
      },
      "oauth_client": [
        {
          "client_id": "131676294123-lhejpv8ot1tnl301lbsjtuflkmh9nde2.apps.googleusercontent.com",
          "client_type": 3
        }
      ],
      "api_key": [
        {
          "current_key": "AIzaSyBvldBliZUEXBhdWmBWz3UJ6GqEVQbquV0"
        }
      ],
      "services": {
        "appinvite_service": {
          "other_platform_oauth_client": [
            {
              "client_id": "131676294123-s7cn6jh2b33iusjcfr3vjujetvmqp1or.apps.googleusercontent.com",
              "client_type": 3
            }
          ]
        }
      }
    }
  ],
  "configuration_version": "1"
}